%YAML 1.1
%TAG !u! tag:unity3d.com,2011:
--- !u!114 &11400000
MonoBehaviour:
  m_ObjectHideFlags: 0
  m_CorrespondingSourceObject: {fileID: 0}
  m_PrefabInstance: {fileID: 0}
  m_PrefabAsset: {fileID: 0}
  m_GameObject: {fileID: 0}
  m_Enabled: 1
  m_EditorHideFlags: 0
  m_Script: {fileID: 0}
  m_Name: Kill4Sound
  m_EditorClassIdentifier: Assembly-CSharp::SoundScriptableObject
  SoundName: Kill
  Sound: {fileID: 8300000, guid: 706c7b32c68152e41a216c89a3b641dc, type: 3}
