%YAML 1.1
%TAG !u! tag:unity3d.com,2011:
--- !u!114 &11400000
MonoBehaviour:
  m_ObjectHideFlags: 0
  m_CorrespondingSourceObject: {fileID: 0}
  m_PrefabInstance: {fileID: 0}
  m_PrefabAsset: {fileID: 0}
  m_GameObject: {fileID: 0}
  m_Enabled: 1
  m_EditorHideFlags: 0
  m_Script: {fileID: 11500000, guid: eed5864476f84ce4b85454db09ca4eaa, type: 3}
  m_Name: graph_0
  m_EditorClassIdentifier: 
  AssetPath: Assets/Materials/World/juta-righe.sbsar
  OutputPath: Assets/Materials/World/juta-righe_graph_0
  RawData: {fileID: -244192453324840774, guid: 72b46f42c2be9cd49827331f4fdefe9b, type: 3}
  Graph:
    Index: 0
    Owner: {fileID: 11400000}
    Input:
    - rid: 1000
    Output:
    - Index: 0
      VirtualOutputIndex: 8
      GraphIndex: 0
      Description:
        Identifier: basecolor
        Label: basecolor
        Index: 0
        Type: 8
        Channel: baseColor
      OutputTexture: {fileID: 2800000, guid: 9cabb6f3770aac942b287b20515a1c1e, type: 3}
      sRGB: 1
      IsVirtual: 0
      IsStandardOutput: 1
      IsAlphaAssignable: 1
      AlphaChannel: opacity
      InvertAssignedAlpha: 0
      BGRATexture: 0
      Flags: 0
    - Index: 1
      VirtualOutputIndex: 9
      GraphIndex: 0
      Description:
        Identifier: normal
        Label: normal
        Index: 1
        Type: 8
        Channel: normal
      OutputTexture: {fileID: 2800000, guid: 2e7c7ba6fb7921a459a12b1e0c437fbd, type: 3}
      sRGB: 0
      IsVirtual: 0
      IsStandardOutput: 1
      IsAlphaAssignable: 0
      AlphaChannel: 
      InvertAssignedAlpha: 0
      BGRATexture: 0
      Flags: 0
    - Index: 2
      VirtualOutputIndex: 10
      GraphIndex: 0
      Description:
        Identifier: roughness
        Label: roughness
        Index: 2
        Type: 8
        Channel: roughness
      OutputTexture: {fileID: 0}
      sRGB: 0
      IsVirtual: 0
      IsStandardOutput: 0
      IsAlphaAssignable: 1
      AlphaChannel: 
      InvertAssignedAlpha: 0
      BGRATexture: 0
      Flags: 0
    - Index: 3
      VirtualOutputIndex: 11
      GraphIndex: 0
      Description:
        Identifier: metallic
        Label: metallic
        Index: 3
        Type: 8
        Channel: metallic
      OutputTexture: {fileID: 2800000, guid: c32369f9dba62ad4ebf33ea8a425bafc, type: 3}
      sRGB: 0
      IsVirtual: 0
      IsStandardOutput: 1
      IsAlphaAssignable: 1
      AlphaChannel: roughness
      InvertAssignedAlpha: 1
      BGRATexture: 0
      Flags: 0
    - Index: 4
      VirtualOutputIndex: 12
      GraphIndex: 0
      Description:
        Identifier: specularlevel
        Label: specularlevel
        Index: 4
        Type: 8
        Channel: specularLevel
      OutputTexture: {fileID: 0}
      sRGB: 0
      IsVirtual: 0
      IsStandardOutput: 0
      IsAlphaAssignable: 1
      AlphaChannel: 
      InvertAssignedAlpha: 0
      BGRATexture: 0
      Flags: 0
    - Index: 5
      VirtualOutputIndex: 13
      GraphIndex: 0
      Description:
        Identifier: height
        Label: height
        Index: 5
        Type: 8
        Channel: height
      OutputTexture: {fileID: 2800000, guid: bfec6b6b2ab9edb46a42040b18c54c57, type: 3}
      sRGB: 0
      IsVirtual: 0
      IsStandardOutput: 1
      IsAlphaAssignable: 1
      AlphaChannel: 
      InvertAssignedAlpha: 0
      BGRATexture: 0
      Flags: 0
    - Index: 6
      VirtualOutputIndex: 14
      GraphIndex: 0
      Description:
        Identifier: ambientocclusion
        Label: ambientocclusion
        Index: 6
        Type: 8
        Channel: ambientOcclusion
      OutputTexture: {fileID: 0}
      sRGB: 0
      IsVirtual: 0
      IsStandardOutput: 0
      IsAlphaAssignable: 1
      AlphaChannel: 
      InvertAssignedAlpha: 0
      BGRATexture: 0
      Flags: 0
    - Index: 7
      VirtualOutputIndex: 15
      GraphIndex: 0
      Description:
        Identifier: opacity
        Label: opacity
        Index: 7
        Type: 8
        Channel: opacity
      OutputTexture: {fileID: 0}
      sRGB: 0
      IsVirtual: 0
      IsStandardOutput: 0
      IsAlphaAssignable: 1
      AlphaChannel: 
      InvertAssignedAlpha: 0
      BGRATexture: 0
      Flags: 0
    RenderTextures: 0
    OutputRemaped: 0
    Thumbnail: 
    HasThumbnail: 0
    OutputMaterial: {fileID: 2100000, guid: 60ad7c4e77d98bf4fb6b58ca6ebf300d, type: 2}
    MaterialShader: Universal Render Pipeline/Lit
    GenerateAllOutputs: 0
    GenerateAllMipmaps: 0
    DefaultPreset: " <sbspreset pkgurl=\"pkg://Juta_righe\" label=\"\" >\n  <presetinput
      identifier=\"$outputsize\" uid=\"3988841209\" type=\"8\" value=\"10,10\" />\n</sbspreset>\n"
    CurrentStatePreset: " <sbspreset pkgurl=\"pkg://Juta_righe\" label=\"\" >\n 
      <presetinput identifier=\"$outputsize\" uid=\"3988841209\" type=\"8\" value=\"10,10\"
      />\n </sbspreset>\n"
    IsRuntimeOnly: 0
  RefreshMaterial: 1
  Name: graph_0
  IsRoot: 1
  FlagedForDelete: 0
  GUID: 65c8c379-f643-49f8-bca4-804cd586ed59
  references:
    version: 2
    RefIds:
    - rid: 1000
      type: {class: SubstanceInputInt2, ns: Adobe.Substance.Input, asm: Adobe.Substance}
      data:
        _Description:
          Identifier: $outputsize
          Label: $outputsize
          GuiGroup: 
          GuiDescription: 
          GuiVisibleIf: 
          Index: 0
          Type: 5
          WidgetType: 0
        _Index: 0
        _GraphID: 0
        _Data: {x: 10, y: 10}
        _isVisible: 1
        _NumericalDescription:
          _DefaultValue: {x: 8, y: 8}
          _MinValue: {x: 0, y: 0}
          _MaxValue: {x: 1, y: 1}
          _SliderClamp: 0
          _EnumValueCount: 0
          _EnumValues: []
        _HasChanged: 0
