%YAML 1.1
%TAG !u! tag:unity3d.com,2011:
--- !u!114 &11400000
MonoBehaviour:
  m_ObjectHideFlags: 0
  m_CorrespondingSourceObject: {fileID: 0}
  m_PrefabInstance: {fileID: 0}
  m_PrefabAsset: {fileID: 0}
  m_GameObject: {fileID: 0}
  m_Enabled: 1
  m_EditorHideFlags: 0
  m_Script: {fileID: 11500000, guid: c1980abc8f10f2a4ba39d01642700b9d, type: 3}
  m_Name: SoundsCollection
  m_EditorClassIdentifier: 
  sounds:
  - {fileID: 11400000, guid: 8f934279c88f08947bef40d10e5cc7b5, type: 2}
  - {fileID: 11400000, guid: 70a1da41ff8fbe544a5103f111cae19a, type: 2}
  - {fileID: 11400000, guid: 761283320626aa646b918e17ff87c1aa, type: 2}
  - {fileID: 11400000, guid: f68499be12be7144aae4f983e33abea7, type: 2}
  - {fileID: 11400000, guid: 670b561a26a90d34c8173d761a06b09d, type: 2}
  - {fileID: 11400000, guid: f54c2432d825b99498bd3de64af6b575, type: 2}
  - {fileID: 11400000, guid: 8b2b6d87918bf9c46bb842e83e78ad7f, type: 2}
  - {fileID: 11400000, guid: bc259b1a2d08bc84b8129ddfefe2d6bd, type: 2}
  - {fileID: 11400000, guid: 79a3eb54a9902ee4391e5c59f17fe5c5, type: 2}
