%YAML 1.1
%TAG !u! tag:unity3d.com,2011:
--- !u!114 &11400000
MonoBehaviour:
  m_ObjectHideFlags: 0
  m_CorrespondingSourceObject: {fileID: 0}
  m_PrefabInstance: {fileID: 0}
  m_PrefabAsset: {fileID: 0}
  m_GameObject: {fileID: 0}
  m_Enabled: 1
  m_EditorHideFlags: 0
  m_Script: {fileID: 11500000, guid: eed5864476f84ce4b85454db09ca4eaa, type: 3}
  m_Name: graph_0
  m_EditorClassIdentifier: 
  AssetPath: Assets/Materials/World/quaked_002.sbsar
  OutputPath: Assets/Materials/World/quaked_002_graph_0
  RawData: {fileID: -244192453324840774, guid: b5782e488d0385649a8528a94304370b, type: 3}
  Graph:
    Index: 0
    Owner: {fileID: 11400000}
    Input:
    - rid: 1000
    - rid: 1001
    Output:
    - Index: 0
      VirtualOutputIndex: 6
      GraphIndex: 0
      Description:
        Identifier: basecolor
        Label: basecolor
        Index: 0
        Type: 8
        Channel: baseColor
      OutputTexture: {fileID: 2800000, guid: 40ff9926af803954985b6713d7bd4c09, type: 3}
      sRGB: 1
      IsVirtual: 0
      IsStandardOutput: 1
      IsAlphaAssignable: 1
      AlphaChannel: 
      InvertAssignedAlpha: 0
      BGRATexture: 0
      Flags: 0
    - Index: 1
      VirtualOutputIndex: 7
      GraphIndex: 0
      Description:
        Identifier: normal
        Label: normal
        Index: 1
        Type: 8
        Channel: normal
      OutputTexture: {fileID: 2800000, guid: 28e81dd9913df5b47a91c03b8a6e11c9, type: 3}
      sRGB: 0
      IsVirtual: 0
      IsStandardOutput: 1
      IsAlphaAssignable: 0
      AlphaChannel: 
      InvertAssignedAlpha: 0
      BGRATexture: 0
      Flags: 0
    - Index: 2
      VirtualOutputIndex: 8
      GraphIndex: 0
      Description:
        Identifier: roughness
        Label: roughness
        Index: 2
        Type: 8
        Channel: roughness
      OutputTexture: {fileID: 0}
      sRGB: 0
      IsVirtual: 0
      IsStandardOutput: 0
      IsAlphaAssignable: 1
      AlphaChannel: 
      InvertAssignedAlpha: 0
      BGRATexture: 0
      Flags: 0
    - Index: 3
      VirtualOutputIndex: 9
      GraphIndex: 0
      Description:
        Identifier: metallic
        Label: metallic
        Index: 3
        Type: 8
        Channel: metallic
      OutputTexture: {fileID: 2800000, guid: f8f8b466457e20a449d7dfdd06fd7e55, type: 3}
      sRGB: 0
      IsVirtual: 0
      IsStandardOutput: 1
      IsAlphaAssignable: 1
      AlphaChannel: roughness
      InvertAssignedAlpha: 1
      BGRATexture: 0
      Flags: 0
    - Index: 4
      VirtualOutputIndex: 10
      GraphIndex: 0
      Description:
        Identifier: height
        Label: height
        Index: 4
        Type: 8
        Channel: height
      OutputTexture: {fileID: 2800000, guid: dc131b22662a3fc4a8ba79aa0acf181d, type: 3}
      sRGB: 0
      IsVirtual: 0
      IsStandardOutput: 1
      IsAlphaAssignable: 1
      AlphaChannel: 
      InvertAssignedAlpha: 0
      BGRATexture: 0
      Flags: 0
    - Index: 5
      VirtualOutputIndex: 11
      GraphIndex: 0
      Description:
        Identifier: ambientocclusion
        Label: ambientocclusion
        Index: 5
        Type: 8
        Channel: ambientOcclusion
      OutputTexture: {fileID: 0}
      sRGB: 0
      IsVirtual: 0
      IsStandardOutput: 0
      IsAlphaAssignable: 1
      AlphaChannel: 
      InvertAssignedAlpha: 0
      BGRATexture: 0
      Flags: 0
    RenderTextures: 0
    OutputRemaped: 0
    Thumbnail: 
    HasThumbnail: 0
    OutputMaterial: {fileID: 2100000, guid: bf91e110001fb4a4bb73e40295873caa, type: 2}
    MaterialShader: Universal Render Pipeline/Lit
    GenerateAllOutputs: 0
    GenerateAllMipmaps: 0
    DefaultPreset: " <sbspreset pkgurl=\"pkg://quaked_002\" label=\"\" >\n  <presetinput
      identifier=\"$outputsize\" uid=\"2624008605\" type=\"8\" value=\"10,10\" />\n</sbspreset>\n"
    CurrentStatePreset: " <sbspreset pkgurl=\"pkg://quaked_002\" label=\"\" >\n 
      <presetinput identifier=\"$outputsize\" uid=\"2624008605\" type=\"8\" value=\"10,10\"
      />\n </sbspreset>\n"
    IsRuntimeOnly: 0
  RefreshMaterial: 1
  Name: graph_0
  IsRoot: 1
  FlagedForDelete: 0
  GUID: 2d03b32c-63c0-4476-bdbb-234e03e55e4d
  references:
    version: 2
    RefIds:
    - rid: 1000
      type: {class: SubstanceInputInt2, ns: Adobe.Substance.Input, asm: Adobe.Substance}
      data:
        _Description:
          Identifier: $outputsize
          Label: $outputsize
          GuiGroup: 
          GuiDescription: 
          GuiVisibleIf: 
          Index: 0
          Type: 5
          WidgetType: 0
        _Index: 0
        _GraphID: 0
        _Data: {x: 10, y: 10}
        _isVisible: 1
        _NumericalDescription:
          _DefaultValue: {x: 8, y: 8}
          _MinValue: {x: 0, y: 0}
          _MaxValue: {x: 1, y: 1}
          _SliderClamp: 0
          _EnumValueCount: 0
          _EnumValues: []
        _HasChanged: 0
    - rid: 1001
      type: {class: SubstanceInputInt, ns: Adobe.Substance.Input, asm: Adobe.Substance}
      data:
        _Description:
          Identifier: $randomseed
          Label: $randomseed
          GuiGroup: 
          GuiDescription: 
          GuiVisibleIf: 
          Index: 1
          Type: 4
          WidgetType: 0
        _Index: 1
        _Data: 0
        _isVisible: 1
        _GraphID: 0
        _NumericalDescription:
          _DefaultValue: 0
          _MinValue: 0
          _MaxValue: 1
          _SliderStep: 0.01
          _SliderClamp: 0
          _LabelFalse: 
          _LabelTrue: 
          _EnumValueCount: 0
          _EnumValues: []
        _HasChanged: 0
