[api-updater (non-obsolete-error-filter)] 9/5/2022 8:59:51 p. m. : Starting C:/Program Files/Unity/Hub/Editor/2020.3.24f1/Editor/Data/Tools/ScriptUpdater/APIUpdater.NonObsoleteApiUpdaterDetector.exe
[api-updater (non-obsolete-error-filter)] 
----------------------------------
jit/startup time      : 3898,1103ms
moved types parse time: 66ms
candidates parse time : 1ms
C# parse time         : 1224ms
candidates check time : 49ms
console write time    : 19ms

[api-updater (non-obsolete-error-filter)] 10/5/2022 7:36:50 p. m. : Starting C:/Program Files/Unity/Hub/Editor/2020.3.24f1/Editor/Data/Tools/ScriptUpdater/APIUpdater.NonObsoleteApiUpdaterDetector.exe
[api-updater (non-obsolete-error-filter)] 
----------------------------------
jit/startup time      : 6062,983ms
moved types parse time: 87ms
candidates parse time : 1ms
C# parse time         : 2108ms
candidates check time : 53ms
console write time    : 0ms

[api-updater (non-obsolete-error-filter)] 16/5/2022 2:43:48 p. m. : Starting C:/Program Files/Unity/Hub/Editor/2020.3.24f1/Editor/Data/Tools/ScriptUpdater/APIUpdater.NonObsoleteApiUpdaterDetector.exe
[api-updater (non-obsolete-error-filter)] 
----------------------------------
jit/startup time      : 2392,5162ms
moved types parse time: 73ms
candidates parse time : 2ms
C# parse time         : 1027ms
candidates check time : 57ms
console write time    : 0ms

[api-updater (non-obsolete-error-filter)] 16/5/2022 2:53:31 p. m. : Starting C:/Program Files/Unity/Hub/Editor/2020.3.24f1/Editor/Data/Tools/ScriptUpdater/APIUpdater.NonObsoleteApiUpdaterDetector.exe
[api-updater (non-obsolete-error-filter)] 
----------------------------------
jit/startup time      : 273,3305ms
moved types parse time: 55ms
candidates parse time : 1ms
C# parse time         : 289ms
candidates check time : 81ms
console write time    : 0ms

[api-updater (non-obsolete-error-filter)] 16/5/2022 2:55:56 p. m. : Starting C:/Program Files/Unity/Hub/Editor/2020.3.24f1/Editor/Data/Tools/ScriptUpdater/APIUpdater.NonObsoleteApiUpdaterDetector.exe
[api-updater (non-obsolete-error-filter)] 
----------------------------------
jit/startup time      : 91,4017ms
moved types parse time: 63ms
candidates parse time : 1ms
C# parse time         : 211ms
candidates check time : 59ms
console write time    : 0ms

