%YAML 1.1
%TAG !u! tag:unity3d.com,2011:
--- !u!114 &11400000
MonoBehaviour:
  m_ObjectHideFlags: 0
  m_CorrespondingSourceObject: {fileID: 0}
  m_PrefabInstance: {fileID: 0}
  m_PrefabAsset: {fileID: 0}
  m_GameObject: {fileID: 0}
  m_Enabled: 1
  m_EditorHideFlags: 0
  m_Script: {fileID: 11500000, guid: eed5864476f84ce4b85454db09ca4eaa, type: 3}
  m_Name: graph_0
  m_EditorClassIdentifier: 
  AssetPath: Assets/Materials/World/half-life.sbsar
  OutputPath: Assets/Materials/World/half-life_graph_0
  RawData: {fileID: -244192453324840774, guid: 7d146cf09d4b1ee40a972ba121412144, type: 3}
  Graph:
    Index: 0
    Owner: {fileID: 11400000}
    Input:
    - id: 0
    Output:
    - Index: 0
      VirtualOutputIndex: 6
      GraphIndex: 0
      Description:
        Identifier: basecolor
        Label: basecolor
        Index: 0
        Type: 8
        Channel: baseColor
      OutputTexture: {fileID: 2800000, guid: 68ac7f0b2ec4a8e488fffd8689f95bf0, type: 3}
      sRGB: 1
      IsVirtual: 0
      IsStandardOutput: 1
      IsAlphaAssignable: 1
      AlphaChannel: 
      InvertAssignedAlpha: 0
      BGRATexture: 0
      Flags: 0
    - Index: 1
      VirtualOutputIndex: 7
      GraphIndex: 0
      Description:
        Identifier: normal
        Label: normal
        Index: 1
        Type: 8
        Channel: normal
      OutputTexture: {fileID: 2800000, guid: f84c45499b40296479e51f86920d88c6, type: 3}
      sRGB: 0
      IsVirtual: 0
      IsStandardOutput: 1
      IsAlphaAssignable: 0
      AlphaChannel: 
      InvertAssignedAlpha: 0
      BGRATexture: 0
      Flags: 0
    - Index: 2
      VirtualOutputIndex: 8
      GraphIndex: 0
      Description:
        Identifier: roughness
        Label: roughness
        Index: 2
        Type: 8
        Channel: roughness
      OutputTexture: {fileID: 0}
      sRGB: 0
      IsVirtual: 0
      IsStandardOutput: 0
      IsAlphaAssignable: 1
      AlphaChannel: 
      InvertAssignedAlpha: 0
      BGRATexture: 0
      Flags: 0
    - Index: 3
      VirtualOutputIndex: 9
      GraphIndex: 0
      Description:
        Identifier: metallic
        Label: metallic
        Index: 3
        Type: 8
        Channel: metallic
      OutputTexture: {fileID: 2800000, guid: 91742c0925b461044aa56cf6ee3f797c, type: 3}
      sRGB: 0
      IsVirtual: 0
      IsStandardOutput: 1
      IsAlphaAssignable: 1
      AlphaChannel: roughness
      InvertAssignedAlpha: 1
      BGRATexture: 0
      Flags: 0
    - Index: 4
      VirtualOutputIndex: 10
      GraphIndex: 0
      Description:
        Identifier: height
        Label: height
        Index: 4
        Type: 8
        Channel: height
      OutputTexture: {fileID: 2800000, guid: ecf4bd71cf872a14c83c8efb1a14afb7, type: 3}
      sRGB: 0
      IsVirtual: 0
      IsStandardOutput: 1
      IsAlphaAssignable: 1
      AlphaChannel: 
      InvertAssignedAlpha: 0
      BGRATexture: 0
      Flags: 0
    - Index: 5
      VirtualOutputIndex: 11
      GraphIndex: 0
      Description:
        Identifier: ambientocclusion
        Label: ambientocclusion
        Index: 5
        Type: 8
        Channel: ambientOcclusion
      OutputTexture: {fileID: 0}
      sRGB: 0
      IsVirtual: 0
      IsStandardOutput: 0
      IsAlphaAssignable: 1
      AlphaChannel: 
      InvertAssignedAlpha: 0
      BGRATexture: 0
      Flags: 0
    RenderTextures: 0
    OutputRemaped: 0
    Thumbnail: 
    HasThumbnail: 0
    OutputMaterial: {fileID: 2100000, guid: aed3bad61584500489b83763562cc1a7, type: 2}
    MaterialShader: Universal Render Pipeline/Lit
    GenerateAllOutputs: 0
    GenerateAllMipmaps: 0
    DefaultPreset: " <sbspreset pkgurl=\"pkg://New_Graph\" label=\"\" >\n  <presetinput
      identifier=\"$outputsize\" uid=\"1526401641\" type=\"8\" value=\"10,10\" />\n
      </sbspreset>\n"
    CurrentStatePreset: " <sbspreset pkgurl=\"pkg://New_Graph\" label=\"\" >\n  <presetinput
      identifier=\"$outputsize\" uid=\"1526401641\" type=\"8\" value=\"10,10\" />\n
      </sbspreset>\n"
    IsRuntimeOnly: 0
  RefreshMaterial: 1
  Name: graph_0
  IsRoot: 1
  FlagedForDelete: 0
  GUID: 30efe49c-b1ab-499b-812a-1e9fa04687dd
  references:
    version: 1
    00000000:
      type: {class: SubstanceInputInt2, ns: Adobe.Substance.Input, asm: Adobe.Substance}
      data:
        _Description:
          Identifier: $outputsize
          Label: $outputsize
          GuiGroup: 
          GuiDescription: 
          GuiVisibleIf: 
          Index: 0
          Type: 5
          WidgetType: 0
        _Index: 0
        _GraphID: 0
        _Data: {x: 10, y: 10}
        _isVisible: 1
        _NumericalDescription:
          _DefaultValue: {x: 8, y: 8}
          _MinValue: {x: 0, y: 0}
          _MaxValue: {x: 1, y: 1}
          _SliderClamp: 0
          _EnumValueCount: 0
          _EnumValues: []
        _HasChanged: 0
