%YAML 1.1
%TAG !u! tag:unity3d.com,2011:
--- !u!1 &5232899129963796744
GameObject:
  m_ObjectHideFlags: 0
  m_CorrespondingSourceObject: {fileID: 0}
  m_PrefabInstance: {fileID: 0}
  m_PrefabAsset: {fileID: 0}
  serializedVersion: 6
  m_Component:
  - component: {fileID: 4887864252494316466}
  - component: {fileID: 8393290447540063255}
  - component: {fileID: 6025256068779538653}
  m_Layer: 0
  m_Name: Pc
  m_TagString: Untagged
  m_Icon: {fileID: 0}
  m_NavMeshLayer: 0
  m_StaticEditorFlags: 4294967295
  m_IsActive: 1
--- !u!4 &4887864252494316466
Transform:
  m_ObjectHideFlags: 0
  m_CorrespondingSourceObject: {fileID: 0}
  m_PrefabInstance: {fileID: 0}
  m_PrefabAsset: {fileID: 0}
  m_GameObject: {fileID: 5232899129963796744}
  m_LocalRotation: {x: 0.13669254, y: 0, z: 0, w: 0.9906135}
  m_LocalPosition: {x: -20.78, y: 3.62, z: -27.4063}
  m_LocalScale: {x: 0.052311778, y: 0.052311774, z: 0.052311778}
  m_Children: []
  m_Father: {fileID: 0}
  m_RootOrder: 0
  m_LocalEulerAnglesHint: {x: 15.713, y: 0, z: 0}
--- !u!33 &8393290447540063255
MeshFilter:
  m_ObjectHideFlags: 0
  m_CorrespondingSourceObject: {fileID: 0}
  m_PrefabInstance: {fileID: 0}
  m_PrefabAsset: {fileID: 0}
  m_GameObject: {fileID: 5232899129963796744}
  m_Mesh: {fileID: 4493585093827132993, guid: 1083f74e0453a1d4889e84d91cc203ac, type: 3}
--- !u!23 &6025256068779538653
MeshRenderer:
  m_ObjectHideFlags: 0
  m_CorrespondingSourceObject: {fileID: 0}
  m_PrefabInstance: {fileID: 0}
  m_PrefabAsset: {fileID: 0}
  m_GameObject: {fileID: 5232899129963796744}
  m_Enabled: 1
  m_CastShadows: 1
  m_ReceiveShadows: 1
  m_DynamicOccludee: 1
  m_MotionVectors: 1
  m_LightProbeUsage: 1
  m_ReflectionProbeUsage: 1
  m_RayTracingMode: 2
  m_RayTraceProcedural: 0
  m_RenderingLayerMask: 1
  m_RendererPriority: 0
  m_Materials:
  - {fileID: 2100000, guid: 90403071b033b994ea3c7f033d45303c, type: 2}
  - {fileID: 2100000, guid: 4736a0962b6e9c84b9975c3d9b468b77, type: 2}
  - {fileID: 915396251693871426, guid: 1083f74e0453a1d4889e84d91cc203ac, type: 3}
  - {fileID: 1788269377728665300, guid: 1083f74e0453a1d4889e84d91cc203ac, type: 3}
  - {fileID: 2100000, guid: aed3bad61584500489b83763562cc1a7, type: 2}
  m_StaticBatchInfo:
    firstSubMesh: 0
    subMeshCount: 0
  m_StaticBatchRoot: {fileID: 0}
  m_ProbeAnchor: {fileID: 0}
  m_LightProbeVolumeOverride: {fileID: 0}
  m_ScaleInLightmap: 1
  m_ReceiveGI: 1
  m_PreserveUVs: 0
  m_IgnoreNormalsForChartDetection: 0
  m_ImportantGI: 0
  m_StitchLightmapSeams: 1
  m_SelectedEditorRenderState: 3
  m_MinimumChartSize: 4
  m_AutoUVMaxDistance: 0.5
  m_AutoUVMaxAngle: 89
  m_LightmapParameters: {fileID: 0}
  m_SortingLayerID: 0
  m_SortingLayer: 0
  m_SortingOrder: 0
  m_AdditionalVertexStreams: {fileID: 0}
