Library\Bee\artifacts\mvdfrm\Unity.Burst.Editor.ref.dll_E2F92DAB6C167CC9.mvfrm
Library\Bee\artifacts\mvdfrm\Unity.Burst.ref.dll_F30DFA20C0DD1968.mvfrm
Library\Bee\artifacts\mvdfrm\Unity.Mathematics.Editor.ref.dll_9A20CFD48BC11F43.mvfrm
Library\Bee\artifacts\mvdfrm\Unity.Mathematics.ref.dll_E8EFDB1B8D5C174E.mvfrm
Library\Bee\artifacts\mvdfrm\Unity.PlasticSCM.Editor.ref.dll_257AEB342BE77856.mvfrm
Library\Bee\artifacts\mvdfrm\Unity.RenderPipeline.Universal.ShaderLibrary.ref.dll_5436F99F8BDCED8B.mvfrm
Library\Bee\artifacts\mvdfrm\Unity.RenderPipelines.Core.Editor.ref.dll_46EB9B6930B27991.mvfrm
Library\Bee\artifacts\mvdfrm\Unity.RenderPipelines.Core.Runtime.ref.dll_CE6A42C97D96EB0A.mvfrm
Library\Bee\artifacts\mvdfrm\Unity.RenderPipelines.Core.ShaderLibrary.ref.dll_7F2C410A434F5518.mvfrm
Library\Bee\artifacts\mvdfrm\Unity.RenderPipelines.ShaderGraph.ShaderGraphLibrary.ref.dll_1A2083B43FB0BF18.mvfrm
Library\Bee\artifacts\mvdfrm\Unity.RenderPipelines.Universal.Editor.ref.dll_0FF7AC68384616B1.mvfrm
Library\Bee\artifacts\mvdfrm\Unity.RenderPipelines.Universal.Runtime.ref.dll_5400A10AF7CC6BEA.mvfrm
Library\Bee\artifacts\mvdfrm\Unity.RenderPipelines.Universal.Shaders.ref.dll_9468B054363B0720.mvfrm
Library\Bee\artifacts\mvdfrm\Unity.Rider.Editor.ref.dll_9B5591808ABA37AF.mvfrm
Library\Bee\artifacts\mvdfrm\Unity.Searcher.Editor.ref.dll_12B7E1785E41BE0E.mvfrm
Library\Bee\artifacts\mvdfrm\Unity.Services.Core.Analytics.ref.dll_EDA1682A714EA6BF.mvfrm
Library\Bee\artifacts\mvdfrm\Unity.Services.Core.Environments.ref.dll_7E0AC2CDE81D9C6D.mvfrm
Library\Bee\artifacts\mvdfrm\Unity.Services.Core.ref.dll_131AC9C5EC6E6517.mvfrm
Library\Bee\artifacts\mvdfrm\Unity.ShaderGraph.Editor.ref.dll_0F50152946DB09D0.mvfrm
Library\Bee\artifacts\mvdfrm\Unity.TextMeshPro.Editor.ref.dll_159E061D77A10B86.mvfrm
Library\Bee\artifacts\mvdfrm\Unity.TextMeshPro.ref.dll_84A4293DBDD182DB.mvfrm
Library\Bee\artifacts\mvdfrm\Unity.Timeline.Editor.ref.dll_0D3D3C0B73557612.mvfrm
Library\Bee\artifacts\mvdfrm\Unity.Timeline.ref.dll_621CDDF9C514DF8F.mvfrm
Library\Bee\artifacts\mvdfrm\Unity.VSCode.Editor.ref.dll_3628369EB48E4C19.mvfrm
Library\Bee\artifacts\mvdfrm\Unity.VisualEffectGraph.Editor.ref.dll_40E84D5AB45D5BAC.mvfrm
Library\Bee\artifacts\mvdfrm\Unity.VisualEffectGraph.Runtime.ref.dll_0736BB02CDA4FDBF.mvfrm
Library\Bee\artifacts\mvdfrm\Unity.VisualStudio.Editor.ref.dll_3A975DBA53ABA4AD.mvfrm
Library\Bee\artifacts\mvdfrm\UnityEditor.UI.ref.dll_4C98D3F7040CD4F5.mvfrm
Library\Bee\artifacts\mvdfrm\UnityEngine.UI.ref.dll_08FEAA520A2EFD60.mvfrm
Library\Bee\artifacts\mvdfrm\UnityEditor.CoreModule.dll_FB4ED9A94D4F1CD3.mvfrm
Library\Bee\artifacts\mvdfrm\UnityEditor.DeviceSimulatorModule.dll_553995D140486E5E.mvfrm
Library\Bee\artifacts\mvdfrm\UnityEditor.DiagnosticsModule.dll_76326BCDCBE0D92C.mvfrm
Library\Bee\artifacts\mvdfrm\UnityEditor.dll_9668D86EEDE8D452.mvfrm
Library\Bee\artifacts\mvdfrm\UnityEditor.GraphViewModule.dll_D3733D8FDCEA8F83.mvfrm
Library\Bee\artifacts\mvdfrm\UnityEditor.PackageManagerUIModule.dll_0C519EF066AF306F.mvfrm
Library\Bee\artifacts\mvdfrm\UnityEditor.QuickSearchModule.dll_0141ECDB24B7D585.mvfrm
Library\Bee\artifacts\mvdfrm\UnityEditor.SceneTemplateModule.dll_6917C7CA658226A6.mvfrm
Library\Bee\artifacts\mvdfrm\UnityEditor.TextCoreFontEngineModule.dll_373943B1DA0EC4F1.mvfrm
Library\Bee\artifacts\mvdfrm\UnityEditor.TextCoreTextEngineModule.dll_7F217A2369927E0F.mvfrm
Library\Bee\artifacts\mvdfrm\UnityEditor.UIBuilderModule.dll_27FBEAAC4FA308B7.mvfrm
Library\Bee\artifacts\mvdfrm\UnityEditor.UIElementsModule.dll_B4CDCA927BFEC92F.mvfrm
Library\Bee\artifacts\mvdfrm\UnityEditor.UIElementsSamplesModule.dll_9E13E4057509202E.mvfrm
Library\Bee\artifacts\mvdfrm\UnityEditor.UIServiceModule.dll_60EDFC0F38DA58D1.mvfrm
Library\Bee\artifacts\mvdfrm\UnityEditor.UnityConnectModule.dll_E382BCAF5C873509.mvfrm
Library\Bee\artifacts\mvdfrm\UnityEngine.AccessibilityModule.dll_9BBD336165F84E43.mvfrm
Library\Bee\artifacts\mvdfrm\UnityEngine.AIModule.dll_CADEF58BAB270EC7.mvfrm
Library\Bee\artifacts\mvdfrm\UnityEngine.AndroidJNIModule.dll_3316B365C51E3805.mvfrm
Library\Bee\artifacts\mvdfrm\UnityEngine.AnimationModule.dll_A1F8B9B8B7476429.mvfrm
Library\Bee\artifacts\mvdfrm\UnityEngine.ARModule.dll_8451BA8F08446D90.mvfrm
Library\Bee\artifacts\mvdfrm\UnityEngine.AssetBundleModule.dll_452B1FCC871E8A77.mvfrm
Library\Bee\artifacts\mvdfrm\UnityEngine.AudioModule.dll_F7DDC9C5DE3212DB.mvfrm
Library\Bee\artifacts\mvdfrm\UnityEngine.ClothModule.dll_5EC626C0B84EF1BF.mvfrm
Library\Bee\artifacts\mvdfrm\UnityEngine.ClusterInputModule.dll_631F31C50E0F07CF.mvfrm
Library\Bee\artifacts\mvdfrm\UnityEngine.ClusterRendererModule.dll_5AE65842B0037BE2.mvfrm
Library\Bee\artifacts\mvdfrm\UnityEngine.CoreModule.dll_1E6FACFBF55487FE.mvfrm
Library\Bee\artifacts\mvdfrm\UnityEngine.CrashReportingModule.dll_79E5C7273BF90656.mvfrm
Library\Bee\artifacts\mvdfrm\UnityEngine.DirectorModule.dll_F57CFDE8D1BDE59B.mvfrm
Library\Bee\artifacts\mvdfrm\UnityEngine.dll_C90D1F474C5C6137.mvfrm
Library\Bee\artifacts\mvdfrm\UnityEngine.DSPGraphModule.dll_FACE5F52441EB6BC.mvfrm
Library\Bee\artifacts\mvdfrm\UnityEngine.GameCenterModule.dll_5D63FD808B5F28F6.mvfrm
Library\Bee\artifacts\mvdfrm\UnityEngine.GIModule.dll_631B3E9946D5F6E1.mvfrm
Library\Bee\artifacts\mvdfrm\UnityEngine.GridModule.dll_FBE0C8EA0DA91DF5.mvfrm
Library\Bee\artifacts\mvdfrm\UnityEngine.HotReloadModule.dll_234177BE927A7FAB.mvfrm
Library\Bee\artifacts\mvdfrm\UnityEngine.ImageConversionModule.dll_C6D855F3322833D6.mvfrm
Library\Bee\artifacts\mvdfrm\UnityEngine.IMGUIModule.dll_303D692CA463A6BC.mvfrm
Library\Bee\artifacts\mvdfrm\UnityEngine.InputLegacyModule.dll_D6703AEB1F104068.mvfrm
Library\Bee\artifacts\mvdfrm\UnityEngine.InputModule.dll_5E539176546A377F.mvfrm
Library\Bee\artifacts\mvdfrm\UnityEngine.JSONSerializeModule.dll_FBD4BC9D6533AECD.mvfrm
Library\Bee\artifacts\mvdfrm\UnityEngine.LocalizationModule.dll_A16BFC17A58AFAC8.mvfrm
Library\Bee\artifacts\mvdfrm\UnityEngine.ParticleSystemModule.dll_CCF81073AA0A91E4.mvfrm
Library\Bee\artifacts\mvdfrm\UnityEngine.PerformanceReportingModule.dll_E3F85F5B44179ABD.mvfrm
Library\Bee\artifacts\mvdfrm\UnityEngine.Physics2DModule.dll_EE9EA9A958445BBE.mvfrm
Library\Bee\artifacts\mvdfrm\UnityEngine.PhysicsModule.dll_E4348CC7F9BB770C.mvfrm
Library\Bee\artifacts\mvdfrm\UnityEngine.ProfilerModule.dll_27C3371F6B176CA8.mvfrm
Library\Bee\artifacts\mvdfrm\UnityEngine.RuntimeInitializeOnLoadManagerInitializerModule.dll_03407594AEB64887.mvfrm
Library\Bee\artifacts\mvdfrm\UnityEngine.ScreenCaptureModule.dll_15BC6A22799FDB2F.mvfrm
Library\Bee\artifacts\mvdfrm\UnityEngine.SharedInternalsModule.dll_4AE994C8A9562F26.mvfrm
Library\Bee\artifacts\mvdfrm\UnityEngine.SpriteMaskModule.dll_46907010ACCEBE70.mvfrm
Library\Bee\artifacts\mvdfrm\UnityEngine.SpriteShapeModule.dll_5E8C4D273CC0C281.mvfrm
Library\Bee\artifacts\mvdfrm\UnityEngine.StreamingModule.dll_568DA70906CF1B67.mvfrm
Library\Bee\artifacts\mvdfrm\UnityEngine.SubstanceModule.dll_3338BB5252221975.mvfrm
Library\Bee\artifacts\mvdfrm\UnityEngine.SubsystemsModule.dll_B13DD6727B16A683.mvfrm
Library\Bee\artifacts\mvdfrm\UnityEngine.TerrainModule.dll_FE7B0836CF79BFFA.mvfrm
Library\Bee\artifacts\mvdfrm\UnityEngine.TerrainPhysicsModule.dll_CD72B946C34D8C71.mvfrm
Library\Bee\artifacts\mvdfrm\UnityEngine.TextCoreFontEngineModule.dll_B598BF04ED0C83BC.mvfrm
Library\Bee\artifacts\mvdfrm\UnityEngine.TextCoreTextEngineModule.dll_FD80F5767C903CDA.mvfrm
Library\Bee\artifacts\mvdfrm\UnityEngine.TextRenderingModule.dll_3EFBDC2D30D75B24.mvfrm
Library\Bee\artifacts\mvdfrm\UnityEngine.TilemapModule.dll_9D776FB7E736A103.mvfrm
Library\Bee\artifacts\mvdfrm\UnityEngine.TLSModule.dll_22B4041C0A9F24E0.mvfrm
Library\Bee\artifacts\mvdfrm\UnityEngine.UIElementsModule.dll_B57C37DA7E42E27A.mvfrm
Library\Bee\artifacts\mvdfrm\UnityEngine.UIElementsNativeModule.dll_56CB5385D827A091.mvfrm
Library\Bee\artifacts\mvdfrm\UnityEngine.UIModule.dll_C65293B9076E1473.mvfrm
Library\Bee\artifacts\mvdfrm\UnityEngine.UmbraModule.dll_72B275DE6B58BE4E.mvfrm
Library\Bee\artifacts\mvdfrm\UnityEngine.UNETModule.dll_B115F4E542637D77.mvfrm
Library\Bee\artifacts\mvdfrm\UnityEngine.UnityAnalyticsModule.dll_EC97813D5631E3E0.mvfrm
Library\Bee\artifacts\mvdfrm\UnityEngine.UnityConnectModule.dll_D0E240BE570F35B4.mvfrm
Library\Bee\artifacts\mvdfrm\UnityEngine.UnityCurlModule.dll_D5155AEA275B5616.mvfrm
Library\Bee\artifacts\mvdfrm\UnityEngine.UnityTestProtocolModule.dll_59D699F7CF047584.mvfrm
Library\Bee\artifacts\mvdfrm\UnityEngine.UnityWebRequestAssetBundleModule.dll_30480C4CBA53EEB1.mvfrm
Library\Bee\artifacts\mvdfrm\UnityEngine.UnityWebRequestAudioModule.dll_5BF4B339CA826555.mvfrm
Library\Bee\artifacts\mvdfrm\UnityEngine.UnityWebRequestModule.dll_D8775D9D3D1CCE55.mvfrm
Library\Bee\artifacts\mvdfrm\UnityEngine.UnityWebRequestTextureModule.dll_A030E4384EA927CA.mvfrm
Library\Bee\artifacts\mvdfrm\UnityEngine.UnityWebRequestWWWModule.dll_C8433AD26C4FF946.mvfrm
Library\Bee\artifacts\mvdfrm\UnityEngine.VehiclesModule.dll_6D3FF7684BE7B536.mvfrm
Library\Bee\artifacts\mvdfrm\UnityEngine.VFXModule.dll_A3929C8AE10C8E4D.mvfrm
Library\Bee\artifacts\mvdfrm\UnityEngine.VideoModule.dll_1CE74E30A0C42E80.mvfrm
Library\Bee\artifacts\mvdfrm\UnityEngine.VirtualTexturingModule.dll_7B5807F4B0D6211C.mvfrm
Library\Bee\artifacts\mvdfrm\UnityEngine.VRModule.dll_1924BA3EA92899EB.mvfrm
Library\Bee\artifacts\mvdfrm\UnityEngine.WindModule.dll_94BE8824868B0667.mvfrm
Library\Bee\artifacts\mvdfrm\UnityEngine.XRModule.dll_4BE37D433262E749.mvfrm
Library\Bee\artifacts\mvdfrm\Unity.Android.Gradle.dll_78DFFA876572D03B.mvfrm
Library\Bee\artifacts\mvdfrm\Unity.Android.Types.dll_6FE5F84876F3EE31.mvfrm
Library\Bee\artifacts\mvdfrm\Unity.Burst.Cecil.dll_334BD269CC08BD8A.mvfrm
Library\Bee\artifacts\mvdfrm\Unity.Burst.Cecil.Mdb.dll_6DD6F93ACEF21347.mvfrm
Library\Bee\artifacts\mvdfrm\Unity.Burst.Cecil.Pdb.dll_852971AA4DA714CA.mvfrm
Library\Bee\artifacts\mvdfrm\Unity.Burst.Cecil.Rocks.dll_E2505333FDD2722A.mvfrm
Library\Bee\artifacts\mvdfrm\Unity.Burst.Unsafe.dll_92EB702A672BE3E9.mvfrm